[
    {
        "name": "elec",
        "title": "Energie moderne",
        "weight": 1,
        "indicators": [
            {
                "title": "Taux daccess à lénergie moderne",
                "name": "taux-access",
                "weight": 1,
                "subIndicators": [
                    {
                        "title": "Carte",
                        "url": "http://www.sie-madagascar.info/user/zbidi/builder/64c097bc-0b6a-4a96-bb5a-09195010071a/embed"
                    },
                    {
                        "title": "Diagrammes additionelles",
                        "url": "https://superset.gfa-demo.de/superset/dashboard/production-totale/?standalone=true"
                    }
                ]
            },
            {
                "title": "Part des renouvelable",
                "name": "renouvelables",
                "subIndicators": [
                    {
                        "title": "Part des renouvelables",
                        "url": "https://superset.gfa-demo.de/superset/dashboard/energie-renouvelable/?standalone=true"
                    }
                ]
            }
        ]
    },
    {
        "name": "hydrocarbures",
        "title": "Hydrocarbures",
        "weight": 2,
        "subSections": [
            {
                "name": "manquant",
                "title": "Réservé pour usage ultérieur",
                "weight": 1
            }
        ]
    },
    {
        "name": "biomasse",
        "title": "Biomasse",
        "weight": 3,
        "subSections": [
            {
                "name": "manquant",
                "title": "Réservé pour usage ultérieur",
                "weight": 1
            }
        ]
    }
]
